C:\Users\Anastasiya_Pravalovich@epam.com\Desktop\webdriver\WebDriver\src\main\java\com\epam\webdriver\page\LogInPage.java
C:\Users\Anastasiya_Pravalovich@epam.com\Desktop\webdriver\WebDriver\src\main\java\com\epam\webdriver\tests\BaseTest.java
C:\Users\Anastasiya_Pravalovich@epam.com\Desktop\webdriver\WebDriver\src\main\java\com\epam\webdriver\step\Steps.java
C:\Users\Anastasiya_Pravalovich@epam.com\Desktop\webdriver\WebDriver\src\main\java\com\epam\webdriver\tests\Test04_Themes.java
C:\Users\Anastasiya_Pravalovich@epam.com\Desktop\webdriver\WebDriver\src\main\java\com\epam\webdriver\utils\WaitUtils.java
C:\Users\Anastasiya_Pravalovich@epam.com\Desktop\webdriver\WebDriver\src\main\java\com\epam\webdriver\page\MailPage.java
C:\Users\Anastasiya_Pravalovich@epam.com\Desktop\webdriver\WebDriver\src\main\java\com\epam\webdriver\tests\Test06_ChangeTheme.java
C:\Users\Anastasiya_Pravalovich@epam.com\Desktop\webdriver\WebDriver\src\main\java\com\epam\webdriver\utils\RobotUtil.java
C:\Users\Anastasiya_Pravalovich@epam.com\Desktop\webdriver\WebDriver\src\main\java\com\epam\webdriver\page\ThemePage.java
C:\Users\Anastasiya_Pravalovich@epam.com\Desktop\webdriver\WebDriver\src\main\java\com\epam\webdriver\page\SentPage.java
C:\Users\Anastasiya_Pravalovich@epam.com\Desktop\webdriver\WebDriver\src\main\java\com\epam\webdriver\page\TrashPage.java
C:\Users\Anastasiya_Pravalovich@epam.com\Desktop\webdriver\WebDriver\src\main\java\com\epam\webdriver\tests\Test03_MainMailBoxPage.java
C:\Users\Anastasiya_Pravalovich@epam.com\Desktop\webdriver\WebDriver\src\main\java\com\epam\webdriver\tests\Test05_SpendMailWithEmotion.java
C:\Users\Anastasiya_Pravalovich@epam.com\Desktop\webdriver\WebDriver\src\main\java\com\epam\webdriver\tests\Test08_CreateShortcut.java
C:\Users\Anastasiya_Pravalovich@epam.com\Desktop\webdriver\WebDriver\src\main\java\com\epam\webdriver\page\ShortcutPage.java
C:\Users\Anastasiya_Pravalovich@epam.com\Desktop\webdriver\WebDriver\src\main\java\com\epam\webdriver\tests\Test02_ForwardBaseTest.java
C:\Users\Anastasiya_Pravalovich@epam.com\Desktop\webdriver\WebDriver\src\main\java\com\epam\webdriver\page\AbstractPage.java
C:\Users\Anastasiya_Pravalovich@epam.com\Desktop\webdriver\WebDriver\src\main\java\com\epam\webdriver\page\SettingPage.java
C:\Users\Anastasiya_Pravalovich@epam.com\Desktop\webdriver\WebDriver\src\main\java\com\epam\webdriver\page\SpamPage.java
C:\Users\Anastasiya_Pravalovich@epam.com\Desktop\webdriver\WebDriver\src\main\java\com\epam\webdriver\tests\Test01_CheckLetterInSpam.java
